proyecto/iverilog_pre_sintesis/dump.vcd
$date
	Fri Jul  5 12:41:08 2019
$end
$version
	Icarus Verilog
$end
$timescale
	1ps
$end
$scope module fir2n_tb $end
$var wire 8 ! dout [7:0] $end
$var reg 1 " clk $end
$var reg 8 # din [7:0] $end
$var reg 1 $ reset $end
$scope module UUT $end
$var wire 1 " clk $end
$var wire 8 % din [7:0] $end
$var wire 1 $ rst $end
$var wire 9 & salida_sumador [8:0] $end
$var wire 8 ' salida_rom_delay [7:0] $end
$var wire 8 ( salida_rom [7:0] $end
$var wire 8 ) salida_mac_delay [7:0] $end
$var wire 8 * salida_mac [7:0] $end
$var wire 8 + salida_delay_asr_uno [7:0] $end
$var wire 8 , salida_delay_asr_dos [7:0] $end
$var wire 8 - salida_asr_uno [7:0] $end
$var wire 8 . salida_asr_dos [7:0] $end
$var wire 8 / entrada_asr_uno [7:0] $end
$var wire 1 0 enable_mac_delay $end
$var wire 1 1 enable_asr_delay $end
$var wire 8 2 dout [7:0] $end
$var wire 3 3 contador_up [2:0] $end
$var wire 3 4 contador_down [2:0] $end
$var wire 1 5 clock_chico $end
$var reg 1 6 enable_asr $end
$scope module MAC $end
$var wire 1 " clk $end
$var wire 18 7 suma [17:0] $end
$var wire 17 8 producto [16:0] $end
$var wire 1 0 clr $end
$var wire 8 9 ROM [7:0] $end
$var wire 8 : MAC_out [7:0] $end
$var wire 9 ; Adder [8:0] $end
$var reg 18 < salida_correcta [17:0] $end
$upscope $end
$scope module asr1 $end
$var wire 1 $ clr $end
$var wire 1 = en $end
$var wire 8 > q [7:0] $end
$var wire 8 ? d [7:0] $end
$var wire 1 5 clk $end
$var wire 3 @ add [2:0] $end
$scope begin genblk1[0] $end
$scope module retardos $end
$var wire 1 $ clr $end
$var wire 8 A d [7:0] $end
$var wire 1 = en $end
$var wire 1 5 clk $end
$var reg 8 B q [7:0] $end
$upscope $end
$upscope $end
$scope begin genblk1[1] $end
$scope module retardos $end
$var wire 1 $ clr $end
$var wire 8 C d [7:0] $end
$var wire 1 = en $end
$var wire 1 5 clk $end
$var reg 8 D q [7:0] $end
$upscope $end
$upscope $end
$scope begin genblk1[2] $end
$scope module retardos $end
$var wire 1 $ clr $end
$var wire 8 E d [7:0] $end
$var wire 1 = en $end
$var wire 1 5 clk $end
$var reg 8 F q [7:0] $end
$upscope $end
$upscope $end
$scope begin genblk1[3] $end
$scope module retardos $end
$var wire 1 $ clr $end
$var wire 8 G d [7:0] $end
$var wire 1 = en $end
$var wire 1 5 clk $end
$var reg 8 H q [7:0] $end
$upscope $end
$upscope $end
$scope begin genblk1[4] $end
$scope module retardos $end
$var wire 1 $ clr $end
$var wire 8 I d [7:0] $end
$var wire 1 = en $end
$var wire 1 5 clk $end
$var reg 8 J q [7:0] $end
$upscope $end
$upscope $end
$scope begin genblk1[5] $end
$scope module retardos $end
$var wire 1 $ clr $end
$var wire 8 K d [7:0] $end
$var wire 1 = en $end
$var wire 1 5 clk $end
$var reg 8 L q [7:0] $end
$upscope $end
$upscope $end
$scope begin genblk1[6] $end
$scope module retardos $end
$var wire 1 $ clr $end
$var wire 8 M d [7:0] $end
$var wire 1 = en $end
$var wire 1 5 clk $end
$var reg 8 N q [7:0] $end
$upscope $end
$upscope $end
$scope begin genblk1[7] $end
$scope module retardos $end
$var wire 1 $ clr $end
$var wire 8 O d [7:0] $end
$var wire 1 = en $end
$var wire 1 5 clk $end
$var reg 8 P q [7:0] $end
$upscope $end
$upscope $end
$upscope $end
$scope module asr2 $end
$var wire 1 $ clr $end
$var wire 8 Q d [7:0] $end
$var wire 8 R q [7:0] $end
$var wire 1 1 en $end
$var wire 1 5 clk $end
$var wire 3 S add [2:0] $end
$scope begin genblk1[0] $end
$scope module retardos $end
$var wire 1 $ clr $end
$var wire 8 T d [7:0] $end
$var wire 1 1 en $end
$var wire 1 5 clk $end
$var reg 8 U q [7:0] $end
$upscope $end
$upscope $end
$scope begin genblk1[1] $end
$scope module retardos $end
$var wire 1 $ clr $end
$var wire 8 V d [7:0] $end
$var wire 1 1 en $end
$var wire 1 5 clk $end
$var reg 8 W q [7:0] $end
$upscope $end
$upscope $end
$scope begin genblk1[2] $end
$scope module retardos $end
$var wire 1 $ clr $end
$var wire 8 X d [7:0] $end
$var wire 1 1 en $end
$var wire 1 5 clk $end
$var reg 8 Y q [7:0] $end
$upscope $end
$upscope $end
$scope begin genblk1[3] $end
$scope module retardos $end
$var wire 1 $ clr $end
$var wire 8 Z d [7:0] $end
$var wire 1 1 en $end
$var wire 1 5 clk $end
$var reg 8 [ q [7:0] $end
$upscope $end
$upscope $end
$scope begin genblk1[4] $end
$scope module retardos $end
$var wire 1 $ clr $end
$var wire 8 \ d [7:0] $end
$var wire 1 1 en $end
$var wire 1 5 clk $end
$var reg 8 ] q [7:0] $end
$upscope $end
$upscope $end
$scope begin genblk1[5] $end
$scope module retardos $end
$var wire 1 $ clr $end
$var wire 8 ^ d [7:0] $end
$var wire 1 1 en $end
$var wire 1 5 clk $end
$var reg 8 _ q [7:0] $end
$upscope $end
$upscope $end
$scope begin genblk1[6] $end
$scope module retardos $end
$var wire 1 $ clr $end
$var wire 8 ` d [7:0] $end
$var wire 1 1 en $end
$var wire 1 5 clk $end
$var reg 8 a q [7:0] $end
$upscope $end
$upscope $end
$scope begin genblk1[7] $end
$scope module retardos $end
$var wire 1 $ clr $end
$var wire 8 b d [7:0] $end
$var wire 1 1 en $end
$var wire 1 5 clk $end
$var reg 8 c q [7:0] $end
$upscope $end
$upscope $end
$upscope $end
$scope module down_counter $end
$var wire 1 " clk $end
$var wire 1 $ clr $end
$var wire 3 d counter [2:0] $end
$var reg 3 e contador [2:0] $end
$upscope $end
$scope module generador_clock $end
$var wire 1 " clock_in $end
$var wire 1 $ rst $end
$var wire 1 5 clock_out $end
$var reg 4 f counter [3:0] $end
$upscope $end
$scope module memoria $end
$var wire 1 " clk $end
$var wire 1 $ clr $end
$var wire 3 g add [2:0] $end
$var reg 8 h q [7:0] $end
$upscope $end
$scope module registro_entrada $end
$var wire 1 5 clk $end
$var wire 1 $ clr $end
$var wire 8 i d [7:0] $end
$var wire 1 j en $end
$var reg 8 k q [7:0] $end
$upscope $end
$scope module registro_salida $end
$var wire 1 5 clk $end
$var wire 1 $ clr $end
$var wire 1 l en $end
$var wire 8 m d [7:0] $end
$var reg 8 n q [7:0] $end
$upscope $end
$scope module retardo_asr_1 $end
$var wire 1 " clk $end
$var wire 8 o data_in [7:0] $end
$var wire 8 p data_out [7:0] $end
$var wire 1 q enable $end
$var wire 1 $ reset $end
$scope begin genblk1[0] $end
$scope module retardos $end
$var wire 1 " clk $end
$var wire 1 $ clr $end
$var wire 8 r d [7:0] $end
$var wire 1 q en $end
$var reg 8 s q [7:0] $end
$upscope $end
$upscope $end
$upscope $end
$scope module retardo_asr_2 $end
$var wire 1 " clk $end
$var wire 8 t data_in [7:0] $end
$var wire 8 u data_out [7:0] $end
$var wire 1 v enable $end
$var wire 1 $ reset $end
$scope begin genblk1[0] $end
$scope module retardos $end
$var wire 1 " clk $end
$var wire 1 $ clr $end
$var wire 8 w d [7:0] $end
$var wire 1 v en $end
$var reg 8 x q [7:0] $end
$upscope $end
$upscope $end
$upscope $end
$scope module retardo_clock_chico $end
$var wire 1 " clk $end
$var wire 1 6 data_in $end
$var wire 1 1 data_out $end
$var wire 1 y enable $end
$var wire 1 $ reset $end
$scope begin genblk1[0] $end
$scope module retardos $end
$var wire 1 " clk $end
$var wire 1 $ clr $end
$var wire 1 z d $end
$var wire 1 y en $end
$var reg 1 { q $end
$upscope $end
$upscope $end
$scope begin genblk1[1] $end
$scope module retardos $end
$var wire 1 " clk $end
$var wire 1 $ clr $end
$var wire 1 { d $end
$var wire 1 y en $end
$var reg 1 | q $end
$upscope $end
$upscope $end
$scope begin genblk1[2] $end
$scope module retardos $end
$var wire 1 " clk $end
$var wire 1 $ clr $end
$var wire 1 | d $end
$var wire 1 y en $end
$var reg 1 } q $end
$upscope $end
$upscope $end
$scope begin genblk1[3] $end
$scope module retardos $end
$var wire 1 " clk $end
$var wire 1 $ clr $end
$var wire 1 } d $end
$var wire 1 y en $end
$var reg 1 ~ q $end
$upscope $end
$upscope $end
$scope begin genblk1[4] $end
$scope module retardos $end
$var wire 1 " clk $end
$var wire 1 $ clr $end
$var wire 1 ~ d $end
$var wire 1 y en $end
$var reg 1 !" q $end
$upscope $end
$upscope $end
$scope begin genblk1[5] $end
$scope module retardos $end
$var wire 1 " clk $end
$var wire 1 $ clr $end
$var wire 1 !" d $end
$var wire 1 y en $end
$var reg 1 "" q $end
$upscope $end
$upscope $end
$upscope $end
$scope module retardo_clock_mac $end
$var wire 1 " clk $end
$var wire 1 6 data_in $end
$var wire 1 0 data_out $end
$var wire 1 #" enable $end
$var wire 1 $ reset $end
$scope begin genblk1[0] $end
$scope module retardos $end
$var wire 1 " clk $end
$var wire 1 $ clr $end
$var wire 1 $" d $end
$var wire 1 #" en $end
$var reg 1 %" q $end
$upscope $end
$upscope $end
$scope begin genblk1[1] $end
$scope module retardos $end
$var wire 1 " clk $end
$var wire 1 $ clr $end
$var wire 1 %" d $end
$var wire 1 #" en $end
$var reg 1 &" q $end
$upscope $end
$upscope $end
$scope begin genblk1[2] $end
$scope module retardos $end
$var wire 1 " clk $end
$var wire 1 $ clr $end
$var wire 1 &" d $end
$var wire 1 #" en $end
$var reg 1 '" q $end
$upscope $end
$upscope $end
$scope begin genblk1[3] $end
$scope module retardos $end
$var wire 1 " clk $end
$var wire 1 $ clr $end
$var wire 1 '" d $end
$var wire 1 #" en $end
$var reg 1 (" q $end
$upscope $end
$upscope $end
$scope begin genblk1[4] $end
$scope module retardos $end
$var wire 1 " clk $end
$var wire 1 $ clr $end
$var wire 1 (" d $end
$var wire 1 #" en $end
$var reg 1 )" q $end
$upscope $end
$upscope $end
$scope begin genblk1[5] $end
$scope module retardos $end
$var wire 1 " clk $end
$var wire 1 $ clr $end
$var wire 1 )" d $end
$var wire 1 #" en $end
$var reg 1 *" q $end
$upscope $end
$upscope $end
$scope begin genblk1[6] $end
$scope module retardos $end
$var wire 1 " clk $end
$var wire 1 $ clr $end
$var wire 1 *" d $end
$var wire 1 #" en $end
$var reg 1 +" q $end
$upscope $end
$upscope $end
$scope begin genblk1[7] $end
$scope module retardos $end
$var wire 1 " clk $end
$var wire 1 $ clr $end
$var wire 1 +" d $end
$var wire 1 #" en $end
$var reg 1 ," q $end
$upscope $end
$upscope $end
$scope begin genblk1[8] $end
$scope module retardos $end
$var wire 1 " clk $end
$var wire 1 $ clr $end
$var wire 1 ," d $end
$var wire 1 #" en $end
$var reg 1 -" q $end
$upscope $end
$upscope $end
$scope begin genblk1[9] $end
$scope module retardos $end
$var wire 1 " clk $end
$var wire 1 $ clr $end
$var wire 1 -" d $end
$var wire 1 #" en $end
$var reg 1 ." q $end
$upscope $end
$upscope $end
$upscope $end
$scope module retardo_mac_salida $end
$var wire 1 " clk $end
$var wire 8 /" data_in [7:0] $end
$var wire 8 0" data_out [7:0] $end
$var wire 1 0 enable $end
$var wire 1 $ reset $end
$scope begin genblk1[0] $end
$scope module retardos $end
$var wire 1 " clk $end
$var wire 1 $ clr $end
$var wire 8 1" d [7:0] $end
$var wire 1 0 en $end
$var reg 8 2" q [7:0] $end
$upscope $end
$upscope $end
$upscope $end
$scope module retardo_rom $end
$var wire 1 " clk $end
$var wire 8 3" data_in [7:0] $end
$var wire 8 4" data_out [7:0] $end
$var wire 1 5" enable $end
$var wire 1 $ reset $end
$scope begin genblk1[0] $end
$scope module retardos $end
$var wire 1 " clk $end
$var wire 1 $ clr $end
$var wire 8 6" d [7:0] $end
$var wire 1 5" en $end
$var reg 8 7" q [7:0] $end
$upscope $end
$upscope $end
$upscope $end
$scope module sumador $end
$var wire 8 8" a [7:0] $end
$var wire 8 9" b [7:0] $end
$var wire 1 " clk $end
$var wire 9 :" suma_previa [8:0] $end
$var reg 9 ;" suma [8:0] $end
$upscope $end
$scope module up_counter $end
$var wire 1 " clk $end
$var wire 1 $ clr $end
$var wire 3 <" counter [2:0] $end
$var reg 3 =" contador [2:0] $end
$upscope $end
$upscope $end
$upscope $end
$enddefinitions $end
#0
$dumpvars
b0 ="
b0 <"
bx ;"
bx :"
bx 9"
bx 8"
bx 7"
bx 6"
15"
bx 4"
bx 3"
bx 2"
b0 1"
bx 0"
b0 /"
x."
x-"
x,"
x+"
x*"
x)"
x("
x'"
x&"
x%"
0$"
1#"
x""
x!"
x~
x}
x|
x{
0z
1y
bx x
b0 w
1v
bx u
b0 t
bx s
b0 r
1q
bx p
b0 o
b0 n
bx m
1l
b0 k
1j
b1 i
bx h
b0 g
b0 f
b111 e
b111 d
b0 c
b0 b
b0 a
b0 `
b0 _
b0 ^
b0 ]
b0 \
b0 [
b0 Z
b0 Y
b0 X
b0 W
b0 V
b0 U
b0 T
b111 S
b0 R
b0 Q
b0 P
b0 O
b0 N
b0 M
b0 L
b0 K
b0 J
b0 I
b0 H
b0 G
b0 F
b0 E
b0 D
b0 C
b0 B
b0 A
b0 @
b0 ?
b0 >
1=
b0 <
bx ;
b0 :
bx 9
bx 8
bx 7
06
15
b111 4
b0 3
b0 2
x1
x0
b0 /
b0 .
b0 -
bx ,
bx +
b0 *
bx )
bx (
bx '
bx &
b1 %
1$
b1 #
0"
b0 !
$end
#10000
bx 1"
bx *
bx :
bx /"
b0 f
0{
0|
0}
0~
0!"
01
0""
0%"
0&"
0'"
0("
0)"
0*"
0+"
0,"
0-"
00
0."
b0 :"
b0 +
b0 p
b0 8"
b0 s
b0 ,
b0 u
b0 9"
b0 x
b1 6"
b1 (
b1 h
b1 3"
b0 '
b0 9
b0 4"
b0 7"
bx <
b0 )
b0 m
b0 0"
b0 2"
1"
#20000
0"
#30000
b0 8
b0 &
b0 ;
b0 ;"
b0 f
1"
#40000
0"
0$
#50000
b1 3
b1 @
b1 g
b1 <"
b1 ="
b110 4
b110 S
b110 d
b110 e
b1 f
b1 '
b1 9
b1 4"
b1 7"
1z
1$"
16
1"
#60000
0"
#70000
0z
0$"
06
b10 6"
b10 (
b10 h
b10 3"
1%"
1{
b10 f
b101 4
b101 S
b101 d
b101 e
b10 3
b10 @
b10 g
b10 <"
b10 ="
1"
#80000
0"
#90000
b11 3
b11 @
b11 g
b11 <"
b11 ="
b100 4
b100 S
b100 d
b100 e
b11 f
0{
1|
0%"
1&"
b11 6"
b11 (
b11 h
b11 3"
b10 '
b10 9
b10 4"
b10 7"
1"
#100000
0"
#110000
b11 '
b11 9
b11 4"
b11 7"
b100 6"
b100 (
b100 h
b100 3"
1'"
0&"
1}
0|
b100 f
b11 4
b11 S
b11 d
b11 e
b100 3
b100 @
b100 g
b100 <"
b100 ="
1"
#120000
0"
#130000
b101 3
b101 @
b101 g
b101 <"
b101 ="
b10 4
b10 S
b10 d
b10 e
b101 f
0}
1~
0'"
1("
b101 6"
b101 (
b101 h
b101 3"
b100 '
b100 9
b100 4"
b100 7"
1"
#140000
0"
#150000
b101 '
b101 9
b101 4"
b101 7"
b110 6"
b110 (
b110 h
b110 3"
1)"
0("
1!"
0~
b110 f
b1 4
b1 S
b1 d
b1 e
b110 3
b110 @
b110 g
b110 <"
b110 ="
1"
#160000
0"
#170000
b111 3
b111 @
b111 g
b111 <"
b111 ="
b0 4
b0 S
b0 d
b0 e
b111 f
0!"
11
1""
0)"
1*"
b111 6"
b111 (
b111 h
b111 3"
b110 '
b110 9
b110 4"
b110 7"
1"
#180000
0"
#190000
05
b111 '
b111 9
b111 4"
b111 7"
b1000 6"
b1000 (
b1000 h
b1000 3"
1+"
0*"
01
0""
b1000 f
b111 4
b111 S
b111 d
b111 e
b0 3
b0 @
b0 g
b0 <"
b0 ="
1"
#200000
0"
#210000
b1 3
b1 @
b1 g
b1 <"
b1 ="
b110 4
b110 S
b110 d
b110 e
b1001 f
0+"
1,"
b1 6"
b1 (
b1 h
b1 3"
b1000 '
b1000 9
b1000 4"
b1000 7"
1z
1$"
16
1"
#220000
0"
#230000
0z
0$"
06
b1 '
b1 9
b1 4"
b1 7"
b10 6"
b10 (
b10 h
b10 3"
1-"
0,"
1%"
1{
b1010 f
b101 4
b101 S
b101 d
b101 e
b10 3
b10 @
b10 g
b10 <"
b10 ="
1"
#240000
0"
#250000
b11 3
b11 @
b11 g
b11 <"
b11 ="
b100 4
b100 S
b100 d
b100 e
b1011 f
0{
1|
0%"
1&"
0-"
10
1."
b11 6"
b11 (
b11 h
b11 3"
b10 '
b10 9
b10 4"
b10 7"
1"
#260000
0"
#270000
b0 1"
b0 *
b0 :
b0 /"
bx )
bx m
bx 0"
bx 2"
b0 7
b0 <
b11 '
b11 9
b11 4"
b11 7"
b100 6"
b100 (
b100 h
b100 3"
00
0."
1'"
0&"
1}
0|
b1100 f
b11 4
b11 S
b11 d
b11 e
b100 3
b100 @
b100 g
b100 <"
b100 ="
1"
#280000
0"
#290000
b101 3
b101 @
b101 g
b101 <"
b101 ="
b10 4
b10 S
b10 d
b10 e
b1101 f
0}
1~
0'"
1("
b101 6"
b101 (
b101 h
b101 3"
b100 '
b100 9
b100 4"
b100 7"
1"
#300000
0"
#310000
b101 '
b101 9
b101 4"
b101 7"
b110 6"
b110 (
b110 h
b110 3"
1)"
0("
1!"
0~
b1110 f
b1 4
b1 S
b1 d
b1 e
b110 3
b110 @
b110 g
b110 <"
b110 ="
1"
#320000
0"
#330000
b111 3
b111 @
b111 g
b111 <"
b111 ="
b0 4
b0 S
b0 d
b0 e
b1111 f
0!"
11
1""
0)"
1*"
b111 6"
b111 (
b111 h
b111 3"
b110 '
b110 9
b110 4"
b110 7"
1"
#340000
0"
#350000
bx !
bx 2
bx n
b1 A
b1 /
b1 ?
b1 k
15
b111 '
b111 9
b111 4"
b111 7"
b1000 6"
b1000 (
b1000 h
b1000 3"
1+"
0*"
01
0""
b0 f
b111 4
b111 S
b111 d
b111 e
b0 3
b0 @
b0 g
b0 <"
b0 ="
1"
#360000
0"
#370000
b1 3
b1 @
b1 g
b1 <"
b1 ="
b110 4
b110 S
b110 d
b110 e
b1 f
0+"
1,"
b1 6"
b1 (
b1 h
b1 3"
b1000 '
b1000 9
b1000 4"
b1000 7"
1z
1$"
16
1"
#380000
0"
b0 #
b0 %
b0 i
#390000
0z
0$"
06
b1 '
b1 9
b1 4"
b1 7"
b10 6"
b10 (
b10 h
b10 3"
1-"
0,"
1%"
1{
b10 f
b101 4
b101 S
b101 d
b101 e
b10 3
b10 @
b10 g
b10 <"
b10 ="
1"
#400000
0"
#410000
b11 3
b11 @
b11 g
b11 <"
b11 ="
b100 4
b100 S
b100 d
b100 e
b11 f
0{
1|
0%"
1&"
0-"
10
1."
b11 6"
b11 (
b11 h
b11 3"
b10 '
b10 9
b10 4"
b10 7"
1"
#420000
0"
#430000
b0 )
b0 m
b0 0"
b0 2"
b11 '
b11 9
b11 4"
b11 7"
b100 6"
b100 (
b100 h
b100 3"
00
0."
1'"
0&"
1}
0|
b100 f
b11 4
b11 S
b11 d
b11 e
b100 3
b100 @
b100 g
b100 <"
b100 ="
1"
#440000
0"
#450000
b101 3
b101 @
b101 g
b101 <"
b101 ="
b10 4
b10 S
b10 d
b10 e
b101 f
0}
1~
0'"
1("
b101 6"
b101 (
b101 h
b101 3"
b100 '
b100 9
b100 4"
b100 7"
1"
#460000
0"
#470000
b101 '
b101 9
b101 4"
b101 7"
b110 6"
b110 (
b110 h
b110 3"
1)"
0("
1!"
0~
b110 f
b1 4
b1 S
b1 d
b1 e
b110 3
b110 @
b110 g
b110 <"
b110 ="
1"
#480000
0"
#490000
b111 3
b111 @
b111 g
b111 <"
b111 ="
b0 4
b0 S
b0 d
b0 e
b111 f
0!"
11
1""
0)"
1*"
b111 6"
b111 (
b111 h
b111 3"
b110 '
b110 9
b110 4"
b110 7"
1"
#500000
0"
#510000
05
b111 '
b111 9
b111 4"
b111 7"
b1000 6"
b1000 (
b1000 h
b1000 3"
1+"
0*"
01
0""
b1000 f
b111 4
b111 S
b111 d
b111 e
b0 3
b0 @
b0 g
b0 <"
b0 ="
1"
#520000
0"
#530000
b1 3
b1 @
b1 g
b1 <"
b1 ="
b110 4
b110 S
b110 d
b110 e
b1001 f
0+"
1,"
b1 6"
b1 (
b1 h
b1 3"
b1000 '
b1000 9
b1000 4"
b1000 7"
1z
1$"
16
1"
#540000
0"
#550000
0z
0$"
06
b1 '
b1 9
b1 4"
b1 7"
b10 6"
b10 (
b10 h
b10 3"
1-"
0,"
1%"
1{
b1010 f
b101 4
b101 S
b101 d
b101 e
b10 3
b10 @
b10 g
b10 <"
b10 ="
1"
#560000
0"
#570000
b11 3
b11 @
b11 g
b11 <"
b11 ="
b100 4
b100 S
b100 d
b100 e
b1011 f
0{
1|
0%"
1&"
0-"
10
1."
b11 6"
b11 (
b11 h
b11 3"
b10 '
b10 9
b10 4"
b10 7"
1"
#580000
0"
#590000
b11 '
b11 9
b11 4"
b11 7"
b100 6"
b100 (
b100 h
b100 3"
00
0."
1'"
0&"
1}
0|
b1100 f
b11 4
b11 S
b11 d
b11 e
b100 3
b100 @
b100 g
b100 <"
b100 ="
1"
#600000
0"
#610000
b101 3
b101 @
b101 g
b101 <"
b101 ="
b10 4
b10 S
b10 d
b10 e
b1101 f
0}
1~
0'"
1("
b101 6"
b101 (
b101 h
b101 3"
b100 '
b100 9
b100 4"
b100 7"
1"
#620000
0"
#630000
b101 '
b101 9
b101 4"
b101 7"
b110 6"
b110 (
b110 h
b110 3"
1)"
0("
1!"
0~
b1110 f
b1 4
b1 S
b1 d
b1 e
b110 3
b110 @
b110 g
b110 <"
b110 ="
1"
#640000
0"
#650000
b111 3
b111 @
b111 g
b111 <"
b111 ="
b0 4
b0 S
b0 d
b0 e
b1111 f
0!"
11
1""
0)"
1*"
b111 6"
b111 (
b111 h
b111 3"
b110 '
b110 9
b110 4"
b110 7"
1"
#660000
0"
#670000
b0 A
b0 /
b0 ?
b0 k
b1 B
b1 C
b1 T
b1 r
b1 -
b1 >
b1 Q
b1 o
b0 !
b0 2
b0 n
15
b111 '
b111 9
b111 4"
b111 7"
b1000 6"
b1000 (
b1000 h
b1000 3"
1+"
0*"
01
0""
b0 f
b111 4
b111 S
b111 d
b111 e
b0 3
b0 @
b0 g
b0 <"
b0 ="
1"
#680000
0"
#690000
b0 T
b0 r
b0 -
b0 >
b0 Q
b0 o
b1 3
b1 @
b1 g
b1 <"
b1 ="
b110 4
b110 S
b110 d
b110 e
b1 f
0+"
1,"
b1 :"
b1 +
b1 p
b1 8"
b1 s
b1 6"
b1 (
b1 h
b1 3"
b1000 '
b1000 9
b1000 4"
b1000 7"
1z
1$"
16
1"
#700000
0"
#710000
0z
0$"
06
b1 '
b1 9
b1 4"
b1 7"
b10 6"
b10 (
b10 h
b10 3"
b1 7
b1 8
b1 &
b1 ;
b1 ;"
b0 :"
b0 +
b0 p
b0 8"
b0 s
1-"
0,"
1%"
1{
b10 f
b101 4
b101 S
b101 d
b101 e
b10 3
b10 @
b10 g
b10 <"
b10 ="
1"
#720000
0"
#730000
b1 1"
b1 *
b1 :
b1 /"
b11 3
b11 @
b11 g
b11 <"
b11 ="
b100 4
b100 S
b100 d
b100 e
b11 f
0{
1|
0%"
1&"
0-"
10
1."
b0 &
b0 ;
b0 ;"
b11 6"
b11 (
b11 h
b11 3"
b0 8
b10 '
b10 9
b10 4"
b10 7"
b1 7
b1 <
1"
#740000
0"
#750000
b0 1"
b0 *
b0 :
b0 /"
b1 )
b1 m
b1 0"
b1 2"
b0 7
b0 <
b11 '
b11 9
b11 4"
b11 7"
b100 6"
b100 (
b100 h
b100 3"
00
0."
1'"
0&"
1}
0|
b100 f
b11 4
b11 S
b11 d
b11 e
b100 3
b100 @
b100 g
b100 <"
b100 ="
1"
#760000
0"
#770000
b101 3
b101 @
b101 g
b101 <"
b101 ="
b10 4
b10 S
b10 d
b10 e
b101 f
0}
1~
0'"
1("
b101 6"
b101 (
b101 h
b101 3"
b100 '
b100 9
b100 4"
b100 7"
1"
#780000
0"
#790000
b101 '
b101 9
b101 4"
b101 7"
b110 6"
b110 (
b110 h
b110 3"
1)"
0("
1!"
0~
b110 f
b1 4
b1 S
b1 d
b1 e
b110 3
b110 @
b110 g
b110 <"
b110 ="
1"
#800000
0"
#810000
b111 3
b111 @
b111 g
b111 <"
b111 ="
b0 4
b0 S
b0 d
b0 e
b111 f
0!"
11
1""
0)"
1*"
b111 6"
b111 (
b111 h
b111 3"
b110 '
b110 9
b110 4"
b110 7"
1"
#820000
0"
#830000
05
b111 '
b111 9
b111 4"
b111 7"
b1000 6"
b1000 (
b1000 h
b1000 3"
1+"
0*"
01
0""
b1000 f
b111 4
b111 S
b111 d
b111 e
b1 T
b1 r
b1 -
b1 >
b1 Q
b1 o
b0 3
b0 @
b0 g
b0 <"
b0 ="
1"
#840000
0"
#850000
b0 T
b0 r
b0 -
b0 >
b0 Q
b0 o
b1 3
b1 @
b1 g
b1 <"
b1 ="
b110 4
b110 S
b110 d
b110 e
b1001 f
0+"
1,"
b1 :"
b1 +
b1 p
b1 8"
b1 s
b1 6"
b1 (
b1 h
b1 3"
b1000 '
b1000 9
b1000 4"
b1000 7"
1z
1$"
16
1"
#860000
0"
#870000
0z
0$"
06
b1 '
b1 9
b1 4"
b1 7"
b10 6"
b10 (
b10 h
b10 3"
b1 7
b1 8
b1 &
b1 ;
b1 ;"
b0 :"
b0 +
b0 p
b0 8"
b0 s
1-"
0,"
1%"
1{
b1010 f
b101 4
b101 S
b101 d
b101 e
b10 3
b10 @
b10 g
b10 <"
b10 ="
1"
#880000
0"
#890000
b1 1"
b1 *
b1 :
b1 /"
b11 3
b11 @
b11 g
b11 <"
b11 ="
b100 4
b100 S
b100 d
b100 e
b1011 f
0{
1|
0%"
1&"
0-"
10
1."
b0 &
b0 ;
b0 ;"
b11 6"
b11 (
b11 h
b11 3"
b0 8
b10 '
b10 9
b10 4"
b10 7"
b1 7
b1 <
1"
#900000
0"
#910000
b0 1"
b0 *
b0 :
b0 /"
b0 7
b0 <
b11 '
b11 9
b11 4"
b11 7"
b100 6"
b100 (
b100 h
b100 3"
00
0."
1'"
0&"
1}
0|
b1100 f
b11 4
b11 S
b11 d
b11 e
b100 3
b100 @
b100 g
b100 <"
b100 ="
1"
#920000
0"
#930000
b101 3
b101 @
b101 g
b101 <"
b101 ="
b10 4
b10 S
b10 d
b10 e
b1101 f
0}
1~
0'"
1("
b101 6"
b101 (
b101 h
b101 3"
b100 '
b100 9
b100 4"
b100 7"
1"
#940000
0"
#950000
b101 '
b101 9
b101 4"
b101 7"
b110 6"
b110 (
b110 h
b110 3"
1)"
0("
1!"
0~
b1110 f
b1 4
b1 S
b1 d
b1 e
b110 3
b110 @
b110 g
b110 <"
b110 ="
1"
#960000
0"
#970000
b111 3
b111 @
b111 g
b111 <"
b111 ="
b0 4
b0 S
b0 d
b0 e
b1111 f
0!"
11
1""
0)"
1*"
b111 6"
b111 (
b111 h
b111 3"
b110 '
b110 9
b110 4"
b110 7"
1"
#980000
0"
#990000
b1 !
b1 2
b1 n
b1 D
b1 E
b0 B
b0 C
15
b111 '
b111 9
b111 4"
b111 7"
b1000 6"
b1000 (
b1000 h
b1000 3"
1+"
0*"
01
0""
b0 f
b111 4
b111 S
b111 d
b111 e
b0 T
b0 r
b0 -
b0 >
b0 Q
b0 o
b0 3
b0 @
b0 g
b0 <"
b0 ="
1"
#1000000
0"
#1010000
b1 T
b1 r
b1 -
b1 >
b1 Q
b1 o
b1 3
b1 @
b1 g
b1 <"
b1 ="
b110 4
b110 S
b110 d
b110 e
b1 f
0+"
1,"
b1 6"
b1 (
b1 h
b1 3"
b1000 '
b1000 9
b1000 4"
b1000 7"
1z
1$"
16
1"
#1020000
0"
#1030000
0z
0$"
06
b1 '
b1 9
b1 4"
b1 7"
b10 6"
b10 (
b10 h
b10 3"
b1 :"
b1 +
b1 p
b1 8"
b1 s
1-"
0,"
1%"
1{
b10 f
b101 4
b101 S
b101 d
b101 e
b0 T
b0 r
b0 -
b0 >
b0 Q
b0 o
b10 3
b10 @
b10 g
b10 <"
b10 ="
1"
#1040000
0"
#1050000
b11 3
b11 @
b11 g
b11 <"
b11 ="
b100 4
b100 S
b100 d
b100 e
b11 f
0{
1|
0%"
1&"
0-"
10
1."
b0 :"
b0 +
b0 p
b0 8"
b0 s
b10 7
b10 8
b1 &
b1 ;
b1 ;"
b11 6"
b11 (
b11 h
b11 3"
b10 '
b10 9
b10 4"
b10 7"
1"
#1060000
0"
#1070000
b10 1"
b10 *
b10 :
b10 /"
b0 )
b0 m
b0 0"
b0 2"
b10 <
b11 '
b11 9
b11 4"
b11 7"
b100 6"
b100 (
b100 h
b100 3"
b10 7
b0 8
b0 &
b0 ;
b0 ;"
00
0."
1'"
0&"
1}
0|
b100 f
b11 4
b11 S
b11 d
b11 e
b100 3
b100 @
b100 g
b100 <"
b100 ="
1"
#1080000
0"
#1090000
b101 3
b101 @
b101 g
b101 <"
b101 ="
b10 4
b10 S
b10 d
b10 e
b101 f
0}
1~
0'"
1("
b101 6"
b101 (
b101 h
b101 3"
b100 '
b100 9
b100 4"
b100 7"
1"
#1100000
0"
#1110000
b101 '
b101 9
b101 4"
b101 7"
b110 6"
b110 (
b110 h
b110 3"
1)"
0("
1!"
0~
b110 f
b1 4
b1 S
b1 d
b1 e
b110 3
b110 @
b110 g
b110 <"
b110 ="
1"
#1120000
0"
#1130000
b111 3
b111 @
b111 g
b111 <"
b111 ="
b0 4
b0 S
b0 d
b0 e
b111 f
0!"
11
1""
0)"
1*"
b111 6"
b111 (
b111 h
b111 3"
b110 '
b110 9
b110 4"
b110 7"
1"
#1140000
0"
