tarea6/mips_tb.vcd
$date
	Mon Jun 10 12:55:28 2019
$end
$version
	Icarus Verilog
$end
$timescale
	1ps
$end
$scope module mips_tb $end
$var wire 1 ! memoryWrite $end
$var wire 1 " memoryRead $end
$var wire 32 # MemWriteData [31:0] $end
$var wire 32 $ MemData [31:0] $end
$var wire 32 % MemAddr [31:0] $end
$var reg 1 & clk $end
$var reg 1 ' rst $end
$scope module UUT $end
$var wire 1 & clk $end
$var wire 1 ' rst $end
$var wire 1 ( overflow $end
$var wire 32 ) mipsOut [31:0] $end
$var wire 32 * instruction [31:0] $end
$var wire 4 + aluControl [3:0] $end
$var wire 1 , RegWrite $end
$var wire 1 - RegDst $end
$var wire 1 . PCWriteCond $end
$var wire 1 / PCWrite $end
$var wire 2 0 PCSource [1:0] $end
$var wire 1 1 MemtoReg $end
$var wire 32 2 MemWriteData [31:0] $end
$var wire 1 ! MemWrite $end
$var wire 1 " MemRead $end
$var wire 32 3 MemData [31:0] $end
$var wire 32 4 MemAddr [31:0] $end
$var wire 1 5 IorD $end
$var wire 1 6 IRWrite $end
$var wire 2 7 ALUSrcB [1:0] $end
$var wire 1 8 ALUSrcA $end
$var wire 2 9 ALUOp [1:0] $end
$scope module aluControl_1 $end
$var wire 6 : inst [5:0] $end
$var wire 2 ; aluOp [1:0] $end
$var reg 4 < aluControl [3:0] $end
$upscope $end
$scope module control_1 $end
$var wire 1 & clk $end
$var wire 6 = op [5:0] $end
$var wire 1 ' rst $end
$var reg 2 > ALUOp [1:0] $end
$var reg 1 8 ALUSrcA $end
$var reg 2 ? ALUSrcB [1:0] $end
$var reg 1 6 IRWrite $end
$var reg 1 5 IorD $end
$var reg 1 " MemRead $end
$var reg 1 ! MemWrite $end
$var reg 1 1 MemtoReg $end
$var reg 2 @ PCSource [1:0] $end
$var reg 1 / PCWrite $end
$var reg 1 . PCWriteCond $end
$var reg 1 - RegDst $end
$var reg 1 , RegWrite $end
$var reg 4 A nextState [3:0] $end
$var reg 4 B state [3:0] $end
$upscope $end
$scope module datapath_1 $end
$var wire 4 C ALUControl [3:0] $end
$var wire 32 D ALUOut [31:0] $end
$var wire 1 8 ALUSrcA $end
$var wire 2 E ALUSrcB [1:0] $end
$var wire 1 6 IRWrite $end
$var wire 1 5 IorD $end
$var wire 1 1 MemToReg $end
$var wire 2 F PCSource [1:0] $end
$var wire 1 / PCWrite $end
$var wire 1 . PCWriteCond $end
$var wire 1 - RegDst $end
$var wire 1 , RegWrite $end
$var wire 1 & clk $end
$var wire 32 G instruction [31:0] $end
$var wire 1 ' rst $end
$var wire 1 ( overflow $end
$var wire 1 H Zero $end
$var wire 32 I WD3 [31:0] $end
$var wire 32 J SrcB [31:0] $end
$var wire 32 K SrcA [31:0] $end
$var wire 32 L SignImm_shift2 [31:0] $end
$var wire 32 M SignImm [31:0] $end
$var wire 32 N RD2 [31:0] $end
$var wire 32 O RD1 [31:0] $end
$var wire 32 P RD [31:0] $end
$var wire 32 Q PC_prima [31:0] $end
$var wire 1 R PCEn $end
$var wire 32 S PC [31:0] $end
$var wire 32 T Instr [31:0] $end
$var wire 32 U Data [31:0] $end
$var wire 32 V B [31:0] $end
$var wire 32 W Adr [31:0] $end
$var wire 32 X ALUResult [31:0] $end
$var wire 32 Y ALUOut_aux [31:0] $end
$var wire 5 Z A3 [4:0] $end
$var wire 32 [ A [31:0] $end
$scope module ALU $end
$var wire 4 \ aluControl [3:0] $end
$var wire 33 ] aux_over [32:0] $end
$var wire 32 ^ aluInB [31:0] $end
$var wire 32 _ aluInA [31:0] $end
$var reg 1 ( aluOverflow $end
$var reg 32 ` aluResult [31:0] $end
$var reg 1 H aluZero $end
$upscope $end
$scope module PC_En $end
$var wire 1 . branch $end
$var wire 1 R pcen $end
$var wire 1 / pcwrite $end
$var wire 1 H zero $end
$upscope $end
$scope module RegisterFile $end
$var wire 5 a addrReadReg1 [4:0] $end
$var wire 5 b addrReadReg2 [4:0] $end
$var wire 1 & clk $end
$var wire 1 , regWrite $end
$var wire 1 ' rst $end
$var wire 32 c dataWrite [31:0] $end
$var wire 32 d data2 [31:0] $end
$var wire 32 e data1 [31:0] $end
$var wire 5 f addrWriteReg [4:0] $end
$var integer 32 g i [31:0] $end
$upscope $end
$scope module Sign_Extend $end
$var wire 16 h din [15:0] $end
$var wire 32 i dout [31:0] $end
$upscope $end
$scope module mux_ALU_final $end
$var wire 32 j din0 [31:0] $end
$var wire 32 k din2 [31:0] $end
$var wire 32 l din3 [31:0] $end
$var wire 2 m sel [1:0] $end
$var wire 32 n din1 [31:0] $end
$var reg 32 o dout [31:0] $end
$upscope $end
$scope module mux_PC_A $end
$var wire 1 8 sel $end
$var wire 32 p din1 [31:0] $end
$var wire 32 q din0 [31:0] $end
$var reg 32 r dout [31:0] $end
$upscope $end
$scope module mux_SrcB $end
$var wire 32 s din1 [31:0] $end
$var wire 32 t din2 [31:0] $end
$var wire 2 u sel [1:0] $end
$var wire 32 v din3 [31:0] $end
$var wire 32 w din0 [31:0] $end
$var reg 32 x dout [31:0] $end
$upscope $end
$scope module mux_a3 $end
$var wire 5 y din0 [4:0] $end
$var wire 5 z din1 [4:0] $end
$var wire 1 - sel $end
$var reg 5 { dout [4:0] $end
$upscope $end
$scope module mux_adr $end
$var wire 1 5 sel $end
$var wire 32 | din1 [31:0] $end
$var wire 32 } din0 [31:0] $end
$var reg 32 ~ dout [31:0] $end
$upscope $end
$scope module mux_wd3 $end
$var wire 32 !" din0 [31:0] $end
$var wire 1 1 sel $end
$var wire 32 "" din1 [31:0] $end
$var reg 32 #" dout [31:0] $end
$upscope $end
$scope module reg_salida $end
$var wire 1 & clk $end
$var wire 32 $" din [31:0] $end
$var wire 1 %" en $end
$var wire 1 ' rst $end
$var reg 32 &" dout [31:0] $end
$upscope $end
$scope module registro_A $end
$var wire 1 & clk $end
$var wire 32 '" din [31:0] $end
$var wire 1 (" en $end
$var wire 1 ' rst $end
$var reg 32 )" dout [31:0] $end
$upscope $end
$scope module registro_B $end
$var wire 1 & clk $end
$var wire 32 *" din [31:0] $end
$var wire 1 +" en $end
$var wire 1 ' rst $end
$var reg 32 ," dout [31:0] $end
$upscope $end
$scope module registro_Data $end
$var wire 1 & clk $end
$var wire 1 -" en $end
$var wire 1 ' rst $end
$var wire 32 ." din [31:0] $end
$var reg 32 /" dout [31:0] $end
$upscope $end
$scope module registro_Instr $end
$var wire 1 & clk $end
$var wire 1 6 en $end
$var wire 1 ' rst $end
$var wire 32 0" din [31:0] $end
$var reg 32 1" dout [31:0] $end
$upscope $end
$scope module registro_PC $end
$var wire 1 & clk $end
$var wire 32 2" din [31:0] $end
$var wire 1 R en $end
$var wire 1 ' rst $end
$var reg 32 3" dout [31:0] $end
$upscope $end
$scope module shifLeft $end
$var wire 32 4" din [31:0] $end
$var wire 32 5" dout [31:0] $end
$upscope $end
$upscope $end
$upscope $end
$scope module memoria_externa $end
$var wire 1 & clk $end
$var wire 32 6" memoryAddress [31:0] $end
$var wire 1 " memoryRead $end
$var wire 1 ! memoryWrite $end
$var wire 32 7" memoryWriteData [31:0] $end
$var wire 1 ' rst $end
$var wire 32 8" memoryOutData [31:0] $end
$upscope $end
$upscope $end
$enddefinitions $end
#0
$dumpvars
bx 8"
bx 7"
bx 6"
bx00 5"
bx 4"
bx 3"
bx 2"
bx 1"
bx 0"
bx /"
bx ."
1-"
bx ,"
1+"
bx *"
bx )"
1("
bx '"
bx &"
1%"
bx $"
bx #"
bx ""
bx !"
bx ~
bx }
bx |
bx {
bx z
bx y
b100 x
bx w
bx00 v
b1 u
bx t
b100 s
bx r
bx q
bx p
bx o
bx n
b0 m
b0 l
bx00 k
bx j
bx i
bx h
bx g
bx f
bx e
bx d
bx c
bx b
bx a
bx `
bx _
b100 ^
bx ]
b10 \
bx [
bx Z
bx Y
bx X
bx W
bx V
bx U
bx T
bx S
1R
bx Q
bx P
bx O
bx N
bx M
bx00 L
bx K
b100 J
bx I
0H
bx G
b0 F
b1 E
bx D
b10 C
b0 B
b1 A
b0 @
b1 ?
b0 >
bx =
b10 <
b0 ;
bx :
b0 9
08
b1 7
16
05
bx 4
bx 3
bx 2
x1
b0 0
1/
0.
x-
0,
b10 +
bx *
bx )
x(
1'
0&
bx %
bx $
bx #
1"
0!
$end
#5000
b100010000010000000000000000011 $
b100010000010000000000000000011 3
b100010000010000000000000000011 P
b100010000010000000000000000011 ."
b100010000010000000000000000011 0"
b100010000010000000000000000011 8"
b100 Q
b100 o
b100 2"
b0 L
b0 v
b0 5"
b0 N
b0 d
b0 *"
b0 O
b0 e
b0 '"
b0 Z
b0 f
b0 {
0(
b100 X
b100 `
b100 j
b100 $"
b0 k
b0 M
b0 i
b0 t
b0 4"
b0 h
b0 b
b0 a
b0 z
b0 y
b0 =
b0 :
b100 ]
b0 K
b0 _
b0 r
b0 I
b0 c
b0 #"
b0 %
b0 4
b0 W
b0 ~
b0 6"
b0 S
b0 q
b0 }
b0 3"
b0 *
b0 G
b0 T
b0 1"
b0 U
b0 ""
b0 /"
b0 [
b0 p
b0 )"
b0 #
b0 2
b0 V
b0 w
b0 ,"
b0 7"
b0 )
b0 D
b0 !"
b0 Y
b0 n
b0 |
b0 &"
b100000 g
1&
#10000
0&
#15000
b100000 g
1&
#20000
0&
#25000
b100000 g
1&
#30000
0&
#35000
b100000 g
1&
#40000
0&
#45000
b100000 g
1&
#50000
0&
#55000
b100000 g
1&
#60000
0&
#65000
b100000 g
1&
#70000
0&
#75000
b100000 g
1&
#80000
0&
#85000
b100000 g
1&
#90000
0&
#95000
b100000 g
1&
#100000
0&
0'
#105000
b10000 Q
b10000 o
b10000 2"
b10000 X
b10000 `
b10000 j
b10000 $"
b100010000010010000000000000111 $
b100010000010010000000000000111 3
b100010000010010000000000000111 P
b100010000010010000000000000111 ."
b100010000010010000000000000111 0"
b100010000010010000000000000111 8"
b1100 L
b1100 v
b1100 5"
b1000 Z
b1000 f
b1000 {
b1100 J
b1100 ^
b1100 x
0R
b10000 ]
b100 K
b100 _
b100 r
b1000001000000000000000001100 k
b11 M
b11 i
b11 t
b11 4"
b11 h
b1000 b
b10000 a
b1000 y
b1000 =
b11 :
b100 I
b100 c
b100 #"
b100 %
b100 4
b100 W
b100 ~
b100 6"
b1001 A
b11 7
b11 ?
b11 E
b11 u
0/
06
b100 S
b100 q
b100 }
b100 3"
b100010000010000000000000000011 *
b100010000010000000000000000011 G
b100010000010000000000000000011 T
b100010000010000000000000000011 1"
b100010000010000000000000000011 U
b100010000010000000000000000011 ""
b100010000010000000000000000011 /"
b100 )
b100 D
b100 !"
b100 Y
b100 n
b100 |
b100 &"
b1 B
1&
#110000
0&
#115000
b11 Q
b11 o
b11 2"
b11 X
b11 `
b11 j
b11 $"
b11 J
b11 ^
b11 x
b11 ]
b0 K
b0 _
b0 r
b1010 A
b10 7
b10 ?
b10 E
b10 u
18
b10000 I
b10000 c
b10000 #"
b1001 B
b10000 )
b10000 D
b10000 !"
b10000 Y
b10000 n
b10000 |
b10000 &"
b100010000010010000000000000111 U
b100010000010010000000000000111 ""
b100010000010010000000000000111 /"
1&
#120000
0&
#125000
b11 I
b11 c
b11 #"
b0 A
1,
01
0-
b11 )
b11 D
b11 !"
b11 Y
b11 n
b11 |
b11 &"
b1010 B
1&
#130000
0&
#135000
b1000 Q
b1000 o
b1000 2"
b1000 X
b1000 `
b1000 j
b1000 $"
1R
b100 J
b100 ^
b100 x
b1000 ]
b100 K
b100 _
b100 r
b1 A
1/
16
b1 7
b1 ?
b1 E
b1 u
08
0,
b11 N
b11 d
b11 *"
b0 B
1&
#140000
0&
#145000
b1000010010101000000100000 $
b1000010010101000000100000 3
b1000010010101000000100000 P
b1000010010101000000100000 ."
b1000010010101000000100000 0"
b1000010010101000000100000 8"
b100100 Q
b100100 o
b100100 2"
b11100 L
b11100 v
b11100 5"
b0 N
b0 d
b0 *"
b1001 Z
b1001 f
b1001 {
b100100 X
b100100 `
b100100 j
b100100 $"
0R
b1000 K
b1000 _
b1000 r
b1000001001000000000000011100 k
b111 M
b111 i
b111 t
b111 4"
b111 h
b1001 b
b1001 y
b111 :
b100100 ]
b11100 J
b11100 ^
b11100 x
b1000 I
b1000 c
b1000 #"
b1000 %
b1000 4
b1000 W
b1000 ~
b1000 6"
b1001 A
b11 7
b11 ?
b11 E
b11 u
0/
06
b1000 S
b1000 q
b1000 }
b1000 3"
b100010000010010000000000000111 *
b100010000010010000000000000111 G
b100010000010010000000000000111 T
b100010000010010000000000000111 1"
b11 #
b11 2
b11 V
b11 w
b11 ,"
b11 7"
b1000 )
b1000 D
b1000 !"
b1000 Y
b1000 n
b1000 |
b1000 &"
b1 B
1&
#150000
0&
#155000
b111 Q
b111 o
b111 2"
b111 X
b111 `
b111 j
b111 $"
b111 J
b111 ^
b111 x
b111 ]
b0 K
b0 _
b0 r
b1010 A
b10 7
b10 ?
b10 E
b10 u
18
b100100 I
b100100 c
b100100 #"
b1001 B
b100100 )
b100100 D
b100100 !"
b100100 Y
b100100 n
b100100 |
b100100 &"
b0 #
b0 2
b0 V
b0 w
b0 ,"
b0 7"
b1000010010101000000100000 U
b1000010010101000000100000 ""
b1000010010101000000100000 /"
1&
#160000
0&
#165000
b111 I
b111 c
b111 #"
b0 A
1,
b111 )
b111 D
b111 !"
b111 Y
b111 n
b111 |
b111 &"
b1010 B
1&
#170000
0&
#175000
b1100 Q
b1100 o
b1100 2"
b1100 X
b1100 `
b1100 j
b1100 $"
1R
b100 J
b100 ^
b100 x
b1100 ]
b1000 K
b1000 _
b1000 r
b1 A
1/
16
b1 7
b1 ?
b1 E
b1 u
08
0,
b111 N
b111 d
b111 *"
b0 B
1&
#180000
0&
#185000
b1001010000101000000100010 $
b1001010000101000000100010 3
b1001010000101000000100010 P
b1001010000101000000100010 ."
b1001010000101000000100010 0"
b1001010000101000000100010 8"
b10100000010001100 Q
b10100000010001100 o
b10100000010001100 2"
b10100000010000000 L
b10100000010000000 v
b10100000010000000 5"
b11 O
b11 e
b11 '"
b10100000010001100 X
b10100000010001100 `
b10100000010001100 j
b10100000010001100 $"
0R
b1100 K
b1100 _
b1100 r
b100001001010100000010000000 k
b101000000100000 M
b101000000100000 i
b101000000100000 t
b101000000100000 4"
b101000000100000 h
b1000 a
b1010 z
b0 =
b100000 :
b10100000010001100 ]
b10100000010000000 J
b10100000010000000 ^
b10100000010000000 x
b1100 I
b1100 c
b1100 #"
b1100 %
b1100 4
b1100 W
b1100 ~
b1100 6"
b110 A
b11 7
b11 ?
b11 E
b11 u
0/
06
b1100 S
b1100 q
b1100 }
b1100 3"
b1000010010101000000100000 *
b1000010010101000000100000 G
b1000010010101000000100000 T
b1000010010101000000100000 1"
b111 #
b111 2
b111 V
b111 w
b111 ,"
b111 7"
b1100 )
b1100 D
b1100 !"
b1100 Y
b1100 n
b1100 |
b1100 &"
b1 B
1&
#190000
0&
#195000
b1010 Q
b1010 o
b1010 2"
b1010 X
b1010 `
b1010 j
b1010 $"
b111 J
b111 ^
b111 x
b1010 ]
b11 K
b11 _
b11 r
b111 A
b10 9
b10 ;
b10 >
b0 7
b0 ?
b0 E
b0 u
18
b10100000010001100 I
b10100000010001100 c
b10100000010001100 #"
b110 B
b10100000010001100 )
b10100000010001100 D
b10100000010001100 !"
b10100000010001100 Y
b10100000010001100 n
b10100000010001100 |
b10100000010001100 &"
b11 [
b11 p
b11 )"
b1001010000101000000100010 U
b1001010000101000000100010 ""
b1001010000101000000100010 /"
1&
#200000
0&
#205000
b1010 Z
b1010 f
b1010 {
b1010 I
b1010 c
b1010 #"
b0 A
1,
1-
b1010 )
b1010 D
b1010 !"
b1010 Y
b1010 n
b1010 |
b1010 &"
b111 B
1&
#210000
0&
#215000
b10000 Q
b10000 o
b10000 2"
b10000 X
b10000 `
b10000 j
b10000 $"
1R
b100 J
b100 ^
b100 x
b10000 ]
b1100 K
b1100 _
b1100 r
b1 A
1/
16
b0 9
b0 ;
b0 >
b1 7
b1 ?
b1 E
b1 u
08
0,
b0 B
1&
#220000
0&
#225000
b10100000010011000 Q
b10100000010011000 o
b10100000010011000 2"
b1001010000101000000100100 $
b1001010000101000000100100 3
b1001010000101000000100100 P
b1001010000101000000100100 ."
b1001010000101000000100100 0"
b1001010000101000000100100 8"
b10100000010011000 X
b10100000010011000 `
b10100000010011000 j
b10100000010011000 $"
b10100000010001000 L
b10100000010001000 v
b10100000010001000 5"
b11 N
b11 d
b11 *"
b111 O
b111 e
b111 '"
b10100000010001000 J
b10100000010001000 ^
b10100000010001000 x
0R
b10100000010011000 ]
b10000 K
b10000 _
b10000 r
b100101000010100000010001000 k
b101000000100010 M
b101000000100010 i
b101000000100010 t
b101000000100010 4"
b101000000100010 h
b1000 b
b1001 a
b1000 y
b100010 :
b10000 I
b10000 c
b10000 #"
b10000 %
b10000 4
b10000 W
b10000 ~
b10000 6"
b110 A
b11 7
b11 ?
b11 E
b11 u
0/
06
b10000 S
b10000 q
b10000 }
b10000 3"
b1001010000101000000100010 *
b1001010000101000000100010 G
b1001010000101000000100010 T
b1001010000101000000100010 1"
b10000 )
b10000 D
b10000 !"
b10000 Y
b10000 n
b10000 |
b10000 &"
b1 B
1&
#230000
0&
#235000
b100 Q
b100 o
b100 2"
b100 X
b100 `
b100 j
b100 $"
b110 +
b110 <
b110 C
b110 \
b11 J
b11 ^
b11 x
b1010 ]
b111 K
b111 _
b111 r
b111 A
b10 9
b10 ;
b10 >
b0 7
b0 ?
b0 E
b0 u
18
b10100000010011000 I
b10100000010011000 c
b10100000010011000 #"
b110 B
b10100000010011000 )
b10100000010011000 D
b10100000010011000 !"
b10100000010011000 Y
b10100000010011000 n
b10100000010011000 |
b10100000010011000 &"
b11 #
b11 2
b11 V
b11 w
b11 ,"
b11 7"
b111 [
b111 p
b111 )"
b1001010000101000000100100 U
b1001010000101000000100100 ""
b1001010000101000000100100 /"
1&
#240000
0&
#245000
b100 I
b100 c
b100 #"
b0 A
1,
b100 )
b100 D
b100 !"
b100 Y
b100 n
b100 |
b100 &"
b111 B
1&
#250000
0&
#255000
b10100 Q
b10100 o
b10100 2"
b10100 X
b10100 `
b10100 j
b10100 $"
1R
b10 +
b10 <
b10 C
b10 \
b100 J
b100 ^
b100 x
b10100 ]
b10000 K
b10000 _
b10000 r
b1 A
1/
16
b0 9
b0 ;
b0 >
b1 7
b1 ?
b1 E
b1 u
08
0,
b0 B
1&
#260000
0&
#265000
b10100000010100100 Q
b10100000010100100 o
b10100000010100100 2"
b1001010000101000000100101 $
b1001010000101000000100101 3
b1001010000101000000100101 P
b1001010000101000000100101 ."
b1001010000101000000100101 0"
b1001010000101000000100101 8"
b10100000010100100 X
b10100000010100100 `
b10100000010100100 j
b10100000010100100 $"
b10100000010010000 L
b10100000010010000 v
b10100000010010000 5"
b10100000010010000 J
b10100000010010000 ^
b10100000010010000 x
0R
b10100000010100100 ]
b10100 K
b10100 _
b10100 r
b100101000010100000010010000 k
b101000000100100 M
b101000000100100 i
b101000000100100 t
b101000000100100 4"
b101000000100100 h
b100100 :
b10100 I
b10100 c
b10100 #"
b10100 %
b10100 4
b10100 W
b10100 ~
b10100 6"
b110 A
b11 7
b11 ?
b11 E
b11 u
0/
06
b10100 S
b10100 q
b10100 }
b10100 3"
b1001010000101000000100100 *
b1001010000101000000100100 G
b1001010000101000000100100 T
b1001010000101000000100100 1"
b10100 )
b10100 D
b10100 !"
b10100 Y
b10100 n
b10100 |
b10100 &"
b1 B
1&
#270000
0&
#275000
b11 Q
b11 o
b11 2"
b11 X
b11 `
b11 j
b11 $"
b0 +
b0 <
b0 C
b0 \
b11 J
b11 ^
b11 x
b1010 ]
b111 K
b111 _
b111 r
b111 A
b10 9
b10 ;
b10 >
b0 7
b0 ?
b0 E
b0 u
18
b10100000010100100 I
b10100000010100100 c
b10100000010100100 #"
b110 B
b10100000010100100 )
b10100000010100100 D
b10100000010100100 !"
b10100000010100100 Y
b10100000010100100 n
b10100000010100100 |
b10100000010100100 &"
b1001010000101000000100101 U
b1001010000101000000100101 ""
b1001010000101000000100101 /"
1&
#280000
0&
#285000
b11 I
b11 c
b11 #"
b0 A
1,
b11 )
b11 D
b11 !"
b11 Y
b11 n
b11 |
b11 &"
b111 B
1&
#290000
0&
#295000
b11000 Q
b11000 o
b11000 2"
b11000 X
b11000 `
b11000 j
b11000 $"
1R
b10 +
b10 <
b10 C
b10 \
b100 J
b100 ^
b100 x
b11000 ]
b10100 K
b10100 _
b10100 r
b1 A
1/
16
b0 9
b0 ;
b0 >
b1 7
b1 ?
b1 E
b1 u
08
0,
b0 B
1&
#300000
0&
#305000
b10100000010101100 Q
b10100000010101100 o
b10100000010101100 2"
b1001010000101000000100110 $
b1001010000101000000100110 3
b1001010000101000000100110 P
b1001010000101000000100110 ."
b1001010000101000000100110 0"
b1001010000101000000100110 8"
b10100000010101100 X
b10100000010101100 `
b10100000010101100 j
b10100000010101100 $"
b10100000010010100 L
b10100000010010100 v
b10100000010010100 5"
b10100000010010100 J
b10100000010010100 ^
b10100000010010100 x
0R
b10100000010101100 ]
b11000 K
b11000 _
b11000 r
b100101000010100000010010100 k
b101000000100101 M
b101000000100101 i
b101000000100101 t
b101000000100101 4"
b101000000100101 h
b100101 :
b11000 I
b11000 c
b11000 #"
b11000 %
b11000 4
b11000 W
b11000 ~
b11000 6"
b110 A
b11 7
b11 ?
b11 E
b11 u
0/
06
b11000 S
b11000 q
b11000 }
b11000 3"
b1001010000101000000100101 *
b1001010000101000000100101 G
b1001010000101000000100101 T
b1001010000101000000100101 1"
b11000 )
b11000 D
b11000 !"
b11000 Y
b11000 n
b11000 |
b11000 &"
b1 B
1&
#310000
0&
#315000
b111 Q
b111 o
b111 2"
b111 X
b111 `
b111 j
b111 $"
b1 +
b1 <
b1 C
b1 \
b11 J
b11 ^
b11 x
b1010 ]
b111 K
b111 _
b111 r
b111 A
b10 9
b10 ;
b10 >
b0 7
b0 ?
b0 E
b0 u
18
b10100000010101100 I
b10100000010101100 c
b10100000010101100 #"
b110 B
b10100000010101100 )
b10100000010101100 D
b10100000010101100 !"
b10100000010101100 Y
b10100000010101100 n
b10100000010101100 |
b10100000010101100 &"
b1001010000101000000100110 U
b1001010000101000000100110 ""
b1001010000101000000100110 /"
1&
#320000
0&
#325000
b111 I
b111 c
b111 #"
b0 A
1,
b111 )
b111 D
b111 !"
b111 Y
b111 n
b111 |
b111 &"
b111 B
1&
#330000
0&
#335000
b11100 Q
b11100 o
b11100 2"
b11100 X
b11100 `
b11100 j
b11100 $"
1R
b10 +
b10 <
b10 C
b10 \
b100 J
b100 ^
b100 x
b11100 ]
b11000 K
b11000 _
b11000 r
b1 A
1/
16
b0 9
b0 ;
b0 >
b1 7
b1 ?
b1 E
b1 u
08
0,
b0 B
1&
#340000
0&
#345000
b10100000010110100 Q
b10100000010110100 o
b10100000010110100 2"
b1001010000101000000100111 $
b1001010000101000000100111 3
b1001010000101000000100111 P
b1001010000101000000100111 ."
b1001010000101000000100111 0"
b1001010000101000000100111 8"
b10100000010110100 X
b10100000010110100 `
b10100000010110100 j
b10100000010110100 $"
b10100000010011000 L
b10100000010011000 v
b10100000010011000 5"
b10100000010011000 J
b10100000010011000 ^
b10100000010011000 x
0R
b10100000010110100 ]
b11100 K
b11100 _
b11100 r
b100101000010100000010011000 k
b101000000100110 M
b101000000100110 i
b101000000100110 t
b101000000100110 4"
b101000000100110 h
b100110 :
b11100 I
b11100 c
b11100 #"
b11100 %
b11100 4
b11100 W
b11100 ~
b11100 6"
b110 A
b11 7
b11 ?
b11 E
b11 u
0/
06
b11100 S
b11100 q
b11100 }
b11100 3"
b1001010000101000000100110 *
b1001010000101000000100110 G
b1001010000101000000100110 T
b1001010000101000000100110 1"
b11100 )
b11100 D
b11100 !"
b11100 Y
b11100 n
b11100 |
b11100 &"
b1 B
1&
#350000
0&
#355000
b1010 Q
b1010 o
b1010 2"
b1010 X
b1010 `
b1010 j
b1010 $"
b11 J
b11 ^
b11 x
b1010 ]
b111 K
b111 _
b111 r
b111 A
b10 9
b10 ;
b10 >
b0 7
b0 ?
b0 E
b0 u
18
b10100000010110100 I
b10100000010110100 c
b10100000010110100 #"
b110 B
b10100000010110100 )
b10100000010110100 D
b10100000010110100 !"
b10100000010110100 Y
b10100000010110100 n
b10100000010110100 |
b10100000010110100 &"
b1001010000101000000100111 U
b1001010000101000000100111 ""
b1001010000101000000100111 /"
1&
#360000
0&
#365000
b1010 I
b1010 c
b1010 #"
b0 A
1,
b1010 )
b1010 D
b1010 !"
b1010 Y
b1010 n
b1010 |
b1010 &"
b111 B
1&
#370000
0&
#375000
b100000 Q
b100000 o
b100000 2"
b100000 X
b100000 `
b100000 j
b100000 $"
1R
b100 J
b100 ^
b100 x
b100000 ]
b11100 K
b11100 _
b11100 r
b1 A
1/
16
b0 9
b0 ;
b0 >
b1 7
b1 ?
b1 E
b1 u
08
0,
b0 B
1&
#380000
0&
#385000
b10100000010111100 Q
b10100000010111100 o
b10100000010111100 2"
b10101101000010010000000000011011 $
b10101101000010010000000000011011 3
b10101101000010010000000000011011 P
b10101101000010010000000000011011 ."
b10101101000010010000000000011011 0"
b10101101000010010000000000011011 8"
b10100000010111100 X
b10100000010111100 `
b10100000010111100 j
b10100000010111100 $"
b10100000010011100 L
b10100000010011100 v
b10100000010011100 5"
b10100000010011100 J
b10100000010011100 ^
b10100000010011100 x
0R
b10100000010111100 ]
b100000 K
b100000 _
b100000 r
b100101000010100000010011100 k
b101000000100111 M
b101000000100111 i
b101000000100111 t
b101000000100111 4"
b101000000100111 h
b100111 :
b100000 I
b100000 c
b100000 #"
b100000 %
b100000 4
b100000 W
b100000 ~
b100000 6"
b110 A
b11 7
b11 ?
b11 E
b11 u
0/
06
b100000 S
b100000 q
b100000 }
b100000 3"
b1001010000101000000100111 *
b1001010000101000000100111 G
b1001010000101000000100111 T
b1001010000101000000100111 1"
b100000 )
b100000 D
b100000 !"
b100000 Y
b100000 n
b100000 |
b100000 &"
b1 B
1&
#390000
0&
#395000
b11111111111111111111111111111000 Q
b11111111111111111111111111111000 o
b11111111111111111111111111111000 2"
b11111111111111111111111111111000 X
b11111111111111111111111111111000 `
b11111111111111111111111111111000 j
b11111111111111111111111111111000 $"
b1100 +
b1100 <
b1100 C
b1100 \
b11 J
b11 ^
b11 x
b1010 ]
b111 K
b111 _
b111 r
b111 A
b10 9
b10 ;
b10 >
b0 7
b0 ?
b0 E
b0 u
18
b10100000010111100 I
b10100000010111100 c
b10100000010111100 #"
b110 B
b10100000010111100 )
b10100000010111100 D
b10100000010111100 !"
b10100000010111100 Y
b10100000010111100 n
b10100000010111100 |
b10100000010111100 &"
b10101101000010010000000000011011 U
b10101101000010010000000000011011 ""
b10101101000010010000000000011011 /"
1&
#400000
0&
#405000
b11111111111111111111111111111000 I
b11111111111111111111111111111000 c
b11111111111111111111111111111000 #"
b0 A
1,
b11111111111111111111111111111000 )
b11111111111111111111111111111000 D
b11111111111111111111111111111000 !"
b11111111111111111111111111111000 Y
b11111111111111111111111111111000 n
b11111111111111111111111111111000 |
b11111111111111111111111111111000 &"
b111 B
1&
#410000
0&
#415000
b100100 Q
b100100 o
b100100 2"
b100100 X
b100100 `
b100100 j
b100100 $"
1R
b10 +
b10 <
b10 C
b10 \
b100 J
b100 ^
b100 x
b100100 ]
b100000 K
b100000 _
b100000 r
b1 A
1/
16
b0 9
b0 ;
b0 >
b1 7
b1 ?
b1 E
b1 u
08
0,
b0 B
1&
#420000
0&
#425000
b10010000 Q
b10010000 o
b10010000 2"
b10001100000010110000000001111000 $
b10001100000010110000000001111000 3
b10001100000010110000000001111000 P
b10001100000010110000000001111000 ."
b10001100000010110000000001111000 0"
b10001100000010110000000001111000 8"
b10010000 X
b10010000 `
b10010000 j
b10010000 $"
b1101100 L
b1101100 v
b1101100 5"
b111 N
b111 d
b111 *"
b11 O
b11 e
b11 '"
b0 Z
b0 f
b0 {
b1101100 J
b1101100 ^
b1101100 x
0R
b10010000 ]
b100100 K
b100100 _
b100100 r
b100001001000000000001101100 k
b11011 M
b11011 i
b11011 t
b11011 4"
b11011 h
b1001 b
b1000 a
b0 z
b1001 y
b101011 =
b11011 :
b100100 I
b100100 c
b100100 #"
b100100 %
b100100 4
b100100 W
b100100 ~
b100100 6"
b10 A
b11 7
b11 ?
b11 E
b11 u
0/
06
b100100 S
b100100 q
b100100 }
b100100 3"
b10101101000010010000000000011011 *
b10101101000010010000000000011011 G
b10101101000010010000000000011011 T
b10101101000010010000000000011011 1"
b100100 )
b100100 D
b100100 !"
b100100 Y
b100100 n
b100100 |
b100100 &"
b1 B
1&
#430000
0&
#435000
b11110 Q
b11110 o
b11110 2"
b11110 X
b11110 `
b11110 j
b11110 $"
b11011 J
b11011 ^
b11011 x
b11110 ]
b11 K
b11 _
b11 r
b101 A
b10 7
b10 ?
b10 E
b10 u
18
b10010000 I
b10010000 c
b10010000 #"
b10 B
b10010000 )
b10010000 D
b10010000 !"
b10010000 Y
b10010000 n
b10010000 |
b10010000 &"
b111 #
b111 2
b111 V
b111 w
b111 ,"
b111 7"
b11 [
b11 p
b11 )"
b10001100000010110000000001111000 U
b10001100000010110000000001111000 ""
b10001100000010110000000001111000 /"
1&
#440000
0&
#445000
b1001010000101000000100111 $
b1001010000101000000100111 3
b1001010000101000000100111 P
b1001010000101000000100111 ."
b1001010000101000000100111 0"
b1001010000101000000100111 8"
b11110 I
b11110 c
b11110 #"
b11110 %
b11110 4
b11110 W
b11110 ~
b11110 6"
b0 A
1!
15
b11110 )
b11110 D
b11110 !"
b11110 Y
b11110 n
b11110 |
b11110 &"
b101 B
1&
#450000
0&
